2022-02-18 14:36:20,679 - Initializing Velocity, Calling init()...
2022-02-18 14:36:20,679 - Starting Apache Velocity v1.7 (compiled: 2010-11-19 12:14:37)
2022-02-18 14:36:20,680 - Default Properties File: org/apache/velocity/runtime/defaults/velocity.properties
2022-02-18 14:36:20,680 - Trying to use logger class org.apache.velocity.runtime.log.AvalonLogChute
2022-02-18 14:36:20,680 - Target log system for org.apache.velocity.runtime.log.AvalonLogChute is not available (java.lang.NoClassDefFoundError: org/apache/log/format/Formatter).  Falling back to next log system...
2022-02-18 14:36:20,680 - Trying to use logger class org.apache.velocity.runtime.log.Log4JLogChute
2022-02-18 14:36:20,680 - Using logger class org.apache.velocity.runtime.log.Log4JLogChute
2022-02-18 14:36:20,680 - ResourceLoader instantiated: org.apache.velocity.runtime.resource.loader.ClasspathResourceLoader
2022-02-18 14:36:20,680 - ResourceCache: initialized (class org.apache.velocity.runtime.resource.ResourceCacheImpl) with class java.util.Collections$SynchronizedMap cache map.
2022-02-18 14:36:20,681 - Loaded System Directive: org.apache.velocity.runtime.directive.Stop
2022-02-18 14:36:20,681 - Loaded System Directive: org.apache.velocity.runtime.directive.Define
2022-02-18 14:36:20,681 - Loaded System Directive: org.apache.velocity.runtime.directive.Break
2022-02-18 14:36:20,681 - Loaded System Directive: org.apache.velocity.runtime.directive.Evaluate
2022-02-18 14:36:20,681 - Loaded System Directive: org.apache.velocity.runtime.directive.Literal
2022-02-18 14:36:20,681 - Loaded System Directive: org.apache.velocity.runtime.directive.Macro
2022-02-18 14:36:20,681 - Loaded System Directive: org.apache.velocity.runtime.directive.Parse
2022-02-18 14:36:20,681 - Loaded System Directive: org.apache.velocity.runtime.directive.Include
2022-02-18 14:36:20,682 - Loaded System Directive: org.apache.velocity.runtime.directive.Foreach
2022-02-18 14:36:20,682 - Created '20' parsers.
2022-02-18 14:36:20,682 - Velocimacro : "velocimacro.library" is not set.  Trying default library: VM_global_library.vm
2022-02-18 14:36:20,683 - Could not load resource 'VM_global_library.vm' from ResourceLoader org.apache.velocity.runtime.resource.loader.ClasspathResourceLoader: ClasspathResourceLoader Error: cannot find resource VM_global_library.vm
2022-02-18 14:36:20,683 - Velocimacro : Default library not found.
2022-02-18 14:36:20,683 - Velocimacro : allowInline = true : VMs can be defined inline in templates
2022-02-18 14:36:20,683 - Velocimacro : allowInlineToOverride = false : VMs defined inline may NOT replace previous VM definitions
2022-02-18 14:36:20,683 - Velocimacro : allowInlineLocal = false : VMs defined inline will be global in scope if allowed.
2022-02-18 14:36:20,683 - Velocimacro : autoload off : VM system will not automatically reload global library macros
2022-02-18 14:36:20,685 - ResourceManager : found templates/generators/overviewSteps.vm with loader org.apache.velocity.runtime.resource.loader.ClasspathResourceLoader
2022-02-18 14:36:20,686 - ResourceManager : found /templates/headers.vm with loader org.apache.velocity.runtime.resource.loader.ClasspathResourceLoader
2022-02-18 14:36:20,687 - ResourceManager : found /templates/head.vm with loader org.apache.velocity.runtime.resource.loader.ClasspathResourceLoader
2022-02-18 14:36:20,687 - Velocimacro : added VM stringArray: source=/templates/macros/array.js.vm
2022-02-18 14:36:20,688 - Velocimacro : added VM numberArray: source=/templates/macros/array.js.vm
2022-02-18 14:36:20,688 - ResourceManager : found /templates/macros/array.js.vm with loader org.apache.velocity.runtime.resource.loader.ClasspathResourceLoader
2022-02-18 14:36:20,688 - Velocimacro : added VM includeBuildInfo: source=/templates/macros/page/buildinfo.vm
2022-02-18 14:36:20,688 - ResourceManager : found /templates/macros/page/buildinfo.vm with loader org.apache.velocity.runtime.resource.loader.ClasspathResourceLoader
2022-02-18 14:36:20,689 - Velocimacro : added VM includeClassifications: source=/templates/macros/page/classifications.vm
2022-02-18 14:36:20,689 - ResourceManager : found /templates/macros/page/classifications.vm with loader org.apache.velocity.runtime.resource.loader.ClasspathResourceLoader
2022-02-18 14:36:20,690 - Velocimacro : added VM includeLead: source=/templates/macros/page/lead.vm
2022-02-18 14:36:20,690 - ResourceManager : found /templates/macros/page/lead.vm with loader org.apache.velocity.runtime.resource.loader.ClasspathResourceLoader
2022-02-18 14:36:20,691 - Velocimacro : added VM includeNavigation: source=/templates/macros/page/navigation.vm
2022-02-18 14:36:20,691 - ResourceManager : found /templates/macros/page/navigation.vm with loader org.apache.velocity.runtime.resource.loader.ClasspathResourceLoader
2022-02-18 14:36:20,692 - Velocimacro : added VM includeReportInfo: source=/templates/macros/page/reportInfo.vm
2022-02-18 14:36:20,692 - ResourceManager : found /templates/macros/page/reportInfo.vm with loader org.apache.velocity.runtime.resource.loader.ClasspathResourceLoader
2022-02-18 14:36:20,693 - Velocimacro : added VM includeTitle: source=/templates/macros/page/title.vm
2022-02-18 14:36:20,693 - ResourceManager : found /templates/macros/page/title.vm with loader org.apache.velocity.runtime.resource.loader.ClasspathResourceLoader
2022-02-18 14:36:20,694 - Velocimacro : added VM includeExpandingButtons: source=/templates/macros/report/expandAllButtons.vm
2022-02-18 14:36:20,694 - ResourceManager : found /templates/macros/report/expandAllButtons.vm with loader org.apache.velocity.runtime.resource.loader.ClasspathResourceLoader
2022-02-18 14:36:20,696 - Velocimacro : added VM includeReportTable: source=/templates/macros/report/reportTable.vm
2022-02-18 14:36:20,696 - ResourceManager : found /templates/macros/report/reportTable.vm with loader org.apache.velocity.runtime.resource.loader.ClasspathResourceLoader
2022-02-18 14:36:20,697 - Velocimacro : added VM includeReportHeader: source=/templates/macros/report/reportHeader.vm
2022-02-18 14:36:20,697 - ResourceManager : found /templates/macros/report/reportHeader.vm with loader org.apache.velocity.runtime.resource.loader.ClasspathResourceLoader
2022-02-18 14:36:20,699 - Velocimacro : added VM includeStatsTable: source=/templates/macros/report/statsTable.vm
2022-02-18 14:36:20,699 - ResourceManager : found /templates/macros/report/statsTable.vm with loader org.apache.velocity.runtime.resource.loader.ClasspathResourceLoader
2022-02-18 14:36:20,700 - Velocimacro : added VM includeBrief: source=/templates/macros/json/brief.vm
2022-02-18 14:36:20,700 - ResourceManager : found /templates/macros/json/brief.vm with loader org.apache.velocity.runtime.resource.loader.ClasspathResourceLoader
2022-02-18 14:36:20,701 - Velocimacro : added VM includeDocString: source=/templates/macros/json/docstring.vm
2022-02-18 14:36:20,701 - ResourceManager : found /templates/macros/json/docstring.vm with loader org.apache.velocity.runtime.resource.loader.ClasspathResourceLoader
2022-02-18 14:36:20,704 - Velocimacro : added VM includeDuration: source=/templates/macros/json/duration.vm
2022-02-18 14:36:20,704 - ResourceManager : found /templates/macros/json/duration.vm with loader org.apache.velocity.runtime.resource.loader.ClasspathResourceLoader
2022-02-18 14:36:20,705 - Velocimacro : added VM includeElement: source=/templates/macros/json/element.vm
2022-02-18 14:36:20,705 - ResourceManager : found /templates/macros/json/element.vm with loader org.apache.velocity.runtime.resource.loader.ClasspathResourceLoader
2022-02-18 14:36:20,708 - Velocimacro : added VM includeEmbeddings: source=/templates/macros/json/embeddings.vm
2022-02-18 14:36:20,708 - Velocimacro : added VM includeHtmlEmbedding: source=/templates/macros/json/embeddings.vm
2022-02-18 14:36:20,708 - Velocimacro : added VM includeImageEmbedding: source=/templates/macros/json/embeddings.vm
2022-02-18 14:36:20,708 - Velocimacro : added VM includeImageReferenceEmbedding: source=/templates/macros/json/embeddings.vm
2022-02-18 14:36:20,708 - Velocimacro : added VM includeTextEmbedding: source=/templates/macros/json/embeddings.vm
2022-02-18 14:36:20,708 - Velocimacro : added VM includeUnknownEmbedding: source=/templates/macros/json/embeddings.vm
2022-02-18 14:36:20,708 - ResourceManager : found /templates/macros/json/embeddings.vm with loader org.apache.velocity.runtime.resource.loader.ClasspathResourceLoader
2022-02-18 14:36:20,710 - Velocimacro : added VM includeHooks: source=/templates/macros/json/hooks.vm
2022-02-18 14:36:20,710 - ResourceManager : found /templates/macros/json/hooks.vm with loader org.apache.velocity.runtime.resource.loader.ClasspathResourceLoader
2022-02-18 14:36:20,712 - Velocimacro : added VM includeOutput: source=/templates/macros/json/output.vm
2022-02-18 14:36:20,712 - ResourceManager : found /templates/macros/json/output.vm with loader org.apache.velocity.runtime.resource.loader.ClasspathResourceLoader
2022-02-18 14:36:20,713 - Velocimacro : added VM includeMessage: source=/templates/macros/json/message.vm
2022-02-18 14:36:20,713 - ResourceManager : found /templates/macros/json/message.vm with loader org.apache.velocity.runtime.resource.loader.ClasspathResourceLoader
2022-02-18 14:36:20,714 - Velocimacro : added VM includeSteps: source=/templates/macros/json/steps.vm
2022-02-18 14:36:20,714 - ResourceManager : found /templates/macros/json/steps.vm with loader org.apache.velocity.runtime.resource.loader.ClasspathResourceLoader
2022-02-18 14:36:20,714 - Velocimacro : added VM includeStepName: source=/templates/macros/json/stepName.vm
2022-02-18 14:36:20,715 - ResourceManager : found /templates/macros/json/stepName.vm with loader org.apache.velocity.runtime.resource.loader.ClasspathResourceLoader
2022-02-18 14:36:20,715 - Velocimacro : added VM includeTags: source=/templates/macros/json/tags.vm
2022-02-18 14:36:20,715 - ResourceManager : found /templates/macros/json/tags.vm with loader org.apache.velocity.runtime.resource.loader.ClasspathResourceLoader
2022-02-18 14:36:20,721 - ResourceManager : found /templates/footer.vm with loader org.apache.velocity.runtime.resource.loader.ClasspathResourceLoader
2022-02-18 14:36:20,723 - Log4JLogChute initialized using file 'target/velocity.log'
2022-02-18 14:36:20,723 - Initializing Velocity, Calling init()...
2022-02-18 14:36:20,723 - Starting Apache Velocity v1.7 (compiled: 2010-11-19 12:14:37)
2022-02-18 14:36:20,723 - Default Properties File: org/apache/velocity/runtime/defaults/velocity.properties
2022-02-18 14:36:20,723 - Trying to use logger class org.apache.velocity.runtime.log.AvalonLogChute
2022-02-18 14:36:20,723 - Target log system for org.apache.velocity.runtime.log.AvalonLogChute is not available (java.lang.NoClassDefFoundError: org/apache/log/format/Formatter).  Falling back to next log system...
2022-02-18 14:36:20,723 - Trying to use logger class org.apache.velocity.runtime.log.Log4JLogChute
2022-02-18 14:36:20,723 - Using logger class org.apache.velocity.runtime.log.Log4JLogChute
2022-02-18 14:36:20,723 - ResourceLoader instantiated: org.apache.velocity.runtime.resource.loader.ClasspathResourceLoader
2022-02-18 14:36:20,723 - ResourceCache: initialized (class org.apache.velocity.runtime.resource.ResourceCacheImpl) with class java.util.Collections$SynchronizedMap cache map.
2022-02-18 14:36:20,724 - Loaded System Directive: org.apache.velocity.runtime.directive.Stop
2022-02-18 14:36:20,724 - Loaded System Directive: org.apache.velocity.runtime.directive.Define
2022-02-18 14:36:20,724 - Loaded System Directive: org.apache.velocity.runtime.directive.Break
2022-02-18 14:36:20,724 - Loaded System Directive: org.apache.velocity.runtime.directive.Evaluate
2022-02-18 14:36:20,724 - Loaded System Directive: org.apache.velocity.runtime.directive.Literal
2022-02-18 14:36:20,724 - Loaded System Directive: org.apache.velocity.runtime.directive.Macro
2022-02-18 14:36:20,724 - Loaded System Directive: org.apache.velocity.runtime.directive.Parse
2022-02-18 14:36:20,724 - Loaded System Directive: org.apache.velocity.runtime.directive.Include
2022-02-18 14:36:20,724 - Loaded System Directive: org.apache.velocity.runtime.directive.Foreach
2022-02-18 14:36:20,725 - Created '20' parsers.
2022-02-18 14:36:20,725 - Velocimacro : "velocimacro.library" is not set.  Trying default library: VM_global_library.vm
2022-02-18 14:36:20,725 - Could not load resource 'VM_global_library.vm' from ResourceLoader org.apache.velocity.runtime.resource.loader.ClasspathResourceLoader: ClasspathResourceLoader Error: cannot find resource VM_global_library.vm
2022-02-18 14:36:20,725 - Velocimacro : Default library not found.
2022-02-18 14:36:20,725 - Velocimacro : allowInline = true : VMs can be defined inline in templates
2022-02-18 14:36:20,725 - Velocimacro : allowInlineToOverride = false : VMs defined inline may NOT replace previous VM definitions
2022-02-18 14:36:20,726 - Velocimacro : allowInlineLocal = false : VMs defined inline will be global in scope if allowed.
2022-02-18 14:36:20,727 - Velocimacro : autoload off : VM system will not automatically reload global library macros
2022-02-18 14:36:20,728 - ResourceManager : found templates/generators/overviewFailures.vm with loader org.apache.velocity.runtime.resource.loader.ClasspathResourceLoader
2022-02-18 14:36:20,729 - ResourceManager : found /templates/headers.vm with loader org.apache.velocity.runtime.resource.loader.ClasspathResourceLoader
2022-02-18 14:36:20,729 - ResourceManager : found /templates/head.vm with loader org.apache.velocity.runtime.resource.loader.ClasspathResourceLoader
2022-02-18 14:36:20,730 - Velocimacro : added VM stringArray: source=/templates/macros/array.js.vm
2022-02-18 14:36:20,730 - Velocimacro : added VM numberArray: source=/templates/macros/array.js.vm
2022-02-18 14:36:20,730 - ResourceManager : found /templates/macros/array.js.vm with loader org.apache.velocity.runtime.resource.loader.ClasspathResourceLoader
2022-02-18 14:36:20,731 - Velocimacro : added VM includeBuildInfo: source=/templates/macros/page/buildinfo.vm
2022-02-18 14:36:20,731 - ResourceManager : found /templates/macros/page/buildinfo.vm with loader org.apache.velocity.runtime.resource.loader.ClasspathResourceLoader
2022-02-18 14:36:20,732 - Velocimacro : added VM includeClassifications: source=/templates/macros/page/classifications.vm
2022-02-18 14:36:20,732 - ResourceManager : found /templates/macros/page/classifications.vm with loader org.apache.velocity.runtime.resource.loader.ClasspathResourceLoader
2022-02-18 14:36:20,732 - Velocimacro : added VM includeLead: source=/templates/macros/page/lead.vm
2022-02-18 14:36:20,733 - ResourceManager : found /templates/macros/page/lead.vm with loader org.apache.velocity.runtime.resource.loader.ClasspathResourceLoader
2022-02-18 14:36:20,733 - Velocimacro : added VM includeNavigation: source=/templates/macros/page/navigation.vm
2022-02-18 14:36:20,733 - ResourceManager : found /templates/macros/page/navigation.vm with loader org.apache.velocity.runtime.resource.loader.ClasspathResourceLoader
2022-02-18 14:36:20,734 - Velocimacro : added VM includeReportInfo: source=/templates/macros/page/reportInfo.vm
2022-02-18 14:36:20,735 - ResourceManager : found /templates/macros/page/reportInfo.vm with loader org.apache.velocity.runtime.resource.loader.ClasspathResourceLoader
2022-02-18 14:36:20,736 - Velocimacro : added VM includeTitle: source=/templates/macros/page/title.vm
2022-02-18 14:36:20,736 - ResourceManager : found /templates/macros/page/title.vm with loader org.apache.velocity.runtime.resource.loader.ClasspathResourceLoader
2022-02-18 14:36:20,736 - Velocimacro : added VM includeExpandingButtons: source=/templates/macros/report/expandAllButtons.vm
2022-02-18 14:36:20,736 - ResourceManager : found /templates/macros/report/expandAllButtons.vm with loader org.apache.velocity.runtime.resource.loader.ClasspathResourceLoader
2022-02-18 14:36:20,737 - Velocimacro : added VM includeReportTable: source=/templates/macros/report/reportTable.vm
2022-02-18 14:36:20,737 - ResourceManager : found /templates/macros/report/reportTable.vm with loader org.apache.velocity.runtime.resource.loader.ClasspathResourceLoader
2022-02-18 14:36:20,738 - Velocimacro : added VM includeReportHeader: source=/templates/macros/report/reportHeader.vm
2022-02-18 14:36:20,738 - ResourceManager : found /templates/macros/report/reportHeader.vm with loader org.apache.velocity.runtime.resource.loader.ClasspathResourceLoader
2022-02-18 14:36:20,739 - Velocimacro : added VM includeStatsTable: source=/templates/macros/report/statsTable.vm
2022-02-18 14:36:20,739 - ResourceManager : found /templates/macros/report/statsTable.vm with loader org.apache.velocity.runtime.resource.loader.ClasspathResourceLoader
2022-02-18 14:36:20,739 - Velocimacro : added VM includeBrief: source=/templates/macros/json/brief.vm
2022-02-18 14:36:20,739 - ResourceManager : found /templates/macros/json/brief.vm with loader org.apache.velocity.runtime.resource.loader.ClasspathResourceLoader
2022-02-18 14:36:20,740 - Velocimacro : added VM includeDocString: source=/templates/macros/json/docstring.vm
2022-02-18 14:36:20,740 - ResourceManager : found /templates/macros/json/docstring.vm with loader org.apache.velocity.runtime.resource.loader.ClasspathResourceLoader
2022-02-18 14:36:20,740 - Velocimacro : added VM includeDuration: source=/templates/macros/json/duration.vm
2022-02-18 14:36:20,740 - ResourceManager : found /templates/macros/json/duration.vm with loader org.apache.velocity.runtime.resource.loader.ClasspathResourceLoader
2022-02-18 14:36:20,741 - Velocimacro : added VM includeElement: source=/templates/macros/json/element.vm
2022-02-18 14:36:20,741 - ResourceManager : found /templates/macros/json/element.vm with loader org.apache.velocity.runtime.resource.loader.ClasspathResourceLoader
2022-02-18 14:36:20,743 - Velocimacro : added VM includeEmbeddings: source=/templates/macros/json/embeddings.vm
2022-02-18 14:36:20,744 - Velocimacro : added VM includeHtmlEmbedding: source=/templates/macros/json/embeddings.vm
2022-02-18 14:36:20,744 - Velocimacro : added VM includeImageEmbedding: source=/templates/macros/json/embeddings.vm
2022-02-18 14:36:20,744 - Velocimacro : added VM includeImageReferenceEmbedding: source=/templates/macros/json/embeddings.vm
2022-02-18 14:36:20,744 - Velocimacro : added VM includeTextEmbedding: source=/templates/macros/json/embeddings.vm
2022-02-18 14:36:20,744 - Velocimacro : added VM includeUnknownEmbedding: source=/templates/macros/json/embeddings.vm
2022-02-18 14:36:20,744 - ResourceManager : found /templates/macros/json/embeddings.vm with loader org.apache.velocity.runtime.resource.loader.ClasspathResourceLoader
2022-02-18 14:36:20,745 - Velocimacro : added VM includeHooks: source=/templates/macros/json/hooks.vm
2022-02-18 14:36:20,746 - ResourceManager : found /templates/macros/json/hooks.vm with loader org.apache.velocity.runtime.resource.loader.ClasspathResourceLoader
2022-02-18 14:36:20,747 - Velocimacro : added VM includeOutput: source=/templates/macros/json/output.vm
2022-02-18 14:36:20,747 - ResourceManager : found /templates/macros/json/output.vm with loader org.apache.velocity.runtime.resource.loader.ClasspathResourceLoader
2022-02-18 14:36:20,747 - Velocimacro : added VM includeMessage: source=/templates/macros/json/message.vm
2022-02-18 14:36:20,747 - ResourceManager : found /templates/macros/json/message.vm with loader org.apache.velocity.runtime.resource.loader.ClasspathResourceLoader
2022-02-18 14:36:20,749 - Velocimacro : added VM includeSteps: source=/templates/macros/json/steps.vm
2022-02-18 14:36:20,749 - ResourceManager : found /templates/macros/json/steps.vm with loader org.apache.velocity.runtime.resource.loader.ClasspathResourceLoader
2022-02-18 14:36:20,749 - Velocimacro : added VM includeStepName: source=/templates/macros/json/stepName.vm
2022-02-18 14:36:20,750 - ResourceManager : found /templates/macros/json/stepName.vm with loader org.apache.velocity.runtime.resource.loader.ClasspathResourceLoader
2022-02-18 14:36:20,750 - Velocimacro : added VM includeTags: source=/templates/macros/json/tags.vm
2022-02-18 14:36:20,750 - ResourceManager : found /templates/macros/json/tags.vm with loader org.apache.velocity.runtime.resource.loader.ClasspathResourceLoader
2022-02-18 14:36:20,752 - ResourceManager : found /templates/footer.vm with loader org.apache.velocity.runtime.resource.loader.ClasspathResourceLoader
.vm with loader org.apache.velocity.runtime.resource.loader.ClasspathResourceLoader
2022-02-18 14:36:20,752 - ResourceManager : found /templates/footer.vm with loader org.apache.velocity.runtime.resource.loader.ClasspathResourceLoader
